{"_embedded":{"registeredPointResourceList":[{"imei":"352094080938183","date":[2017,5,29,0,22,52],"speed":"0.000000","datos":"{\"alt\": 328, \"dat\": \"1=0,179=0,180=0\", \"sat\": 13}","position":"POINT (-4.725305 37.671045)","_links":{"self":{"href":"http://127.0.0.1:8081/1389"}}},{"imei":"352094080938183","date":[2017,5,29,1,22,52],"speed":"0.000000","datos":"{\"alt\": 324, \"dat\": \"1=0,179=0,180=0\", \"sat\": 11}","position":"POINT (-4.725305 37.671045)","_links":{"self":{"href":"http://127.0.0.1:8081/1388"}}},{"imei":"352094080938183","date":[2017,5,29,2,22,52],"speed":"0.000000","datos":"{\"alt\": 320, \"dat\": \"1=0,179=0,180=0\", \"sat\": 15}","position":"POINT (-4.725305 37.671045)","_links":{"self":{"href":"http://127.0.0.1:8081/1387"}}},{"imei":"352094080938183","date":[2017,5,29,3,22,52],"speed":"0.000000","datos":"{\"alt\": 341, \"dat\": \"1=0,179=0,180=0\", \"sat\": 14}","position":"POINT (-4.725305 37.671045)","_links":{"self":{"href":"http://127.0.0.1:8081/1386"}}},{"imei":"352094080938183","date":[2017,5,29,4,22,52],"speed":"0.000000","datos":"{\"alt\": 335, \"dat\": \"1=0,179=0,180=0\", \"sat\": 12}","position":"POINT (-4.725305 37.671045)","_links":{"self":{"href":"http://127.0.0.1:8081/1385"}}},{"imei":"352094080938183","date":[2017,5,29,5,22,52],"speed":"0.000000","datos":"{\"alt\": 323, \"dat\": \"1=0,179=0,180=0\", \"sat\": 11}","position":"POINT (-4.725305 37.671045)","_links":{"self":{"href":"http://127.0.0.1:8081/1384"}}},{"imei":"352094080938183","date":[2017,5,29,6,22,52],"speed":"0.000000","datos":"{\"alt\": 329, \"dat\": \"1=0,179=0,180=0\", \"sat\": 10}","position":"POINT (-4.725305 37.671045)","_links":{"self":{"href":"http://127.0.0.1:8081/1383"}}},{"imei":"352094080938183","date":[2017,5,29,7,22,52],"speed":"0.000000","datos":"{\"alt\": 335, \"dat\": \"1=0,179=0,180=0\", \"sat\": 12}","position":"POINT (-4.725305 37.671045)","_links":{"self":{"href":"http://127.0.0.1:8081/1382"}}},{"imei":"352094080938183","date":[2017,5,29,7,35,8],"speed":"0.000000","datos":"{\"alt\": 344, \"dat\": \"1=1,179=0,180=0\", \"sat\": 12, \"evID\": 1}","position":"POINT (-4.725305 37.671045)","_links":{"self":{"href":"http://127.0.0.1:8081/73"}}},{"imei":"352094080938183","date":[2017,5,29,7,35,29],"speed":"6.000000","datos":"{\"alt\": 349, \"dat\": \"1=1,179=0,180=0\", \"dir\": 301, \"sat\": 12}","position":"POINT (-4.7253299 37.6711383)","_links":{"self":{"href":"http://127.0.0.1:8081/1381"}}},{"imei":"352094080938183","date":[2017,5,29,7,35,31],"speed":"8.000000","datos":"{\"alt\": 349, \"dat\": \"1=1,179=0,180=0\", \"dir\": 278, \"sat\": 12}","position":"POINT (-4.7253466 37.6711316)","_links":{"self":{"href":"http://127.0.0.1:8081/1380"}}},{"imei":"352094080938183","date":[2017,5,29,7,35,32],"speed":"7.000000","datos":"{\"alt\": 348, \"dat\": \"1=1,179=0,180=0\", \"dir\": 196, \"sat\": 12}","position":"POINT (-4.7253299 37.6711166)","_links":{"self":{"href":"http://127.0.0.1:8081/1379"}}},{"imei":"352094080938183","date":[2017,5,29,7,35,33],"speed":"13.000000","datos":"{\"alt\": 348, \"dat\": \"1=1,179=0,180=0\", \"dir\": 161, \"sat\": 12}","position":"POINT (-4.72529 37.6711016)","_links":{"self":{"href":"http://127.0.0.1:8081/1378"}}},{"imei":"352094080938183","date":[2017,5,29,7,35,37],"speed":"13.000000","datos":"{\"alt\": 344, \"dat\": \"1=1,179=0,180=0\", \"dir\": 138, \"sat\": 11}","position":"POINT (-4.72517 37.6710816)","_links":{"self":{"href":"http://127.0.0.1:8081/1377"}}},{"imei":"352094080938183","date":[2017,5,29,7,36,3],"speed":"6.000000","datos":"{\"alt\": 328, \"dat\": \"1=1,179=0,180=0\", \"dir\": 39, \"sat\": 10}","position":"POINT (-4.72526 37.67108)","_links":{"self":{"href":"http://127.0.0.1:8081/1376"}}},{"imei":"352094080938183","date":[2017,5,29,7,36,11],"speed":"9.000000","datos":"{\"alt\": 329, \"dat\": \"1=1,179=0,180=0\", \"dir\": 326, \"sat\": 10}","position":"POINT (-4.72528 37.67109)","_links":{"self":{"href":"http://127.0.0.1:8081/1375"}}},{"imei":"352094080938183","date":[2017,5,29,7,36,12],"speed":"12.000000","datos":"{\"alt\": 329, \"dat\": \"1=1,179=0,180=0\", \"dir\": 304, \"sat\": 10}","position":"POINT (-4.7253033 37.6711133)","_links":{"self":{"href":"http://127.0.0.1:8081/1374"}}},{"imei":"352094080938183","date":[2017,5,29,7,36,19],"speed":"21.000000","datos":"{\"alt\": 332, \"dat\": \"1=1,179=0,180=0\", \"dir\": 316, \"sat\": 10}","position":"POINT (-4.725725 37.6713883)","_links":{"self":{"href":"http://127.0.0.1:8081/1373"}}},{"imei":"352094080938183","date":[2017,5,29,7,36,26],"speed":"13.000000","datos":"{\"alt\": 333, \"dat\": \"1=1,179=0,180=0\", \"dir\": 303, \"sat\": 11}","position":"POINT (-4.7260116 37.671575)","_links":{"self":{"href":"http://127.0.0.1:8081/1372"}}},{"imei":"352094080938183","date":[2017,5,29,7,36,28],"speed":"8.000000","datos":"{\"alt\": 332, \"dat\": \"1=1,179=0,180=0\", \"dir\": 313, \"sat\": 11}","position":"POINT (-4.7260816 37.6716066)","_links":{"self":{"href":"http://127.0.0.1:8081/1371"}}}]},"_links":{"first":{"href":"http://127.0.0.1:8081/registered-points?page=0&size=20&sort=date,asc"},"self":{"href":"http://127.0.0.1:8081/registered-points?page=0&size=20&sort=date,asc"},"next":{"href":"http://127.0.0.1:8081/registered-points?page=1&size=20&sort=date,asc"},"last":{"href":"http://127.0.0.1:8081/registered-points?page=44&size=20&sort=date,asc"}},"page":{"size":20,"totalElements":891,"totalPages":45,"number":0}}