{"_embedded":{"registeredPointResourceList":[{"imei":"352094080938183","date":[2017,5,25,12,38,23],"speed":"0.000000","datos":"{\"alt\": 259, \"dat\": \"1=0,179=0,180=0\", \"dir\": 48, \"sat\": 19, \"evID\": 1}","position":"POINT (-4.7338416 37.6786916)","street":"Carretera Córdoba - Málaga","number":"","locality":"Fernán-Núñez","province":"Córdoba","postalCode":"14520","country":"Spain","_links":{"self":{"href":"http://127.0.0.1:8081/129"}}}]},"_links":{"first":{"href":"http://127.0.0.1:8081/companies/1/registered-points?imei=352094080938183&startdate=2017-05-25&enddate=2017-05-26&date.dir=asc&page=0&size=1&sort=date,asc"},"self":{"href":"http://127.0.0.1:8081/companies/1/registered-points?imei=352094080938183&startdate=2017-05-25&enddate=2017-05-26&date.dir=asc&page=0&size=1&sort=date,asc"},"next":{"href":"http://127.0.0.1:8081/companies/1/registered-points?imei=352094080938183&startdate=2017-05-25&enddate=2017-05-26&date.dir=asc&page=1&size=1&sort=date,asc"},"last":{"href":"http://127.0.0.1:8081/companies/1/registered-points?imei=352094080938183&startdate=2017-05-25&enddate=2017-05-26&date.dir=asc&page=812&size=1&sort=date,asc"}},"page":{"size":1,"totalElements":813,"totalPages":813,"number":0}}